…
``` r
summary(hambac_1)
#> # A tibble: 22 x 8
#>    depth  mean    sd `2.5%` `25%` `50%` `75%` `97.5%`
#>    <dbl> <dbl> <dbl>  <dbl> <dbl> <dbl> <dbl>   <dbl>
#>  1   1.5 4540.  66.8  4416. 4494. 4543. 4587.   4661.
#>  2   6.5 4614.  66.7  4479. 4566. 4616. 4664.   4739.
#>  3  11.5 4685.  65.2  4551. 4636. 4695. 4737.   4789.
#>  4  16.5 4753.  63.4  4612. 4706. 4776. 4803.   4838.
#>  5  21.5 4873.  53.8  4786. 4843. 4860. 4892.   5013.
#>  6  26.5 5080.  97.4  4896. 5003. 5087. 5155.   5248.
#>  7  31.5 5335.  61.3  5222. 5296. 5326. 5381.   5449.
#>  8  36.5 5477.  44.6  5382. 5449. 5477. 5505.   5563.
#>  9  41.5 5580.  44.7  5490. 5554. 5581. 5603.   5672.
#> 10  46.5 5684.  56.5  5592. 5646. 5682. 5711.   5833.
#> # ... with 12 more rows
```

``` r
predict(hambac_1)
#> # A tibble: 61,710 x 3
#>     iter depth   age
#>    <dbl> <dbl> <dbl>
#>  1   501   1.5 4554.
#>  2   501   6.5 4644.
#>  3   501  11.5 4765.
#>  4   501  16.5 4767.
#>  5   501  21.5 4893.
#>  6   501  26.5 5243.
#>  7   501  31.5 5295.
#>  8   501  36.5 5412.
#>  9   501  41.5 5515.
#> 10   501  46.5 5721.
#> # ... with 61,700 more rows
```
…
If you want specific depths you can ask for them and the age models will
be linearly interpolated

``` r
spec_depths <- predict(hambac_1, depth = c(10:15))

spec_depths
#> # A tibble: 16,830 x 3
#>     iter depth   age
#>    <int> <int> <dbl>
#>  1     1    10 4729.
#>  2     1    11 4753.
#>  3     1    12 4765.
#>  4     1    13 4766.
#>  5     1    14 4766.
#>  6     1    15 4766.
#>  7     2    10 4728.
#>  8     2    11 4750.
#>  9     2    12 4762.
#> 10     2    13 4764.
#> # ... with 16,820 more rows
```
…
